{"data":[{"id":71,"first_name":"Lorenzo","height_feet":null,"height_inches":null,"last_name":"Brown","position":"G","team":{"id":28,"abbreviation":"TOR","city":"Toronto","conference":"East","division":"Atlantic","full_name":"Toronto Raptors","name":"Raptors"},"weight_pounds":null},{"id":1,"first_name":"Alex","height_feet":6,"height_inches":6,"last_name":"Abrines","position":"G","team":{"id":21,"abbreviation":"OKC","city":"Oklahoma City","conference":"West","division":"Northwest","full_name":"Oklahoma City Thunder","name":"Thunder"},"weight_pounds":200},{"id":119,"first_name":"Tyler","height_feet":null,"height_inches":null,"last_name":"Davis","position":"C","team":{"id":21,"abbreviation":"OKC","city":"Oklahoma City","conference":"West","division":"Northwest","full_name":"Oklahoma City Thunder","name":"Thunder"},"weight_pounds":null},{"id":392,"first_name":"Malachi","height_feet":null,"height_inches":null,"last_name":"Richardson","position":"G","team":{"id":29,"abbreviation":"UTA","city":"Utah","conference":"West","division":"Northwest","full_name":"Utah Jazz","name":"Jazz"},"weight_pounds":null},{"id":281,"first_name":"Zach","height_feet":null,"height_inches":null,"last_name":"Lofton","position":"G","team":{"id":9,"abbreviation":"DET","city":"Detroit","conference":"East","division":"Central","full_name":"Detroit Pistons","name":"Pistons"},"weight_pounds":null},{"id":382,"first_name":"Billy","height_feet":null,"height_inches":null,"last_name":"Preston","position":"F","team":{"id":6,"abbreviation":"CLE","city":"Cleveland","conference":"East","division":"Central","full_name":"Cleveland Cavaliers","name":"Cavaliers"},"weight_pounds":null},{"id":388,"first_name":"Zach","height_feet":null,"height_inches":null,"last_name":"Randolph","position":"F","team":{"id":26,"abbreviation":"SAC","city":"Sacramento","conference":"West","division":"Pacific","full_name":"Sacramento Kings","name":"Kings"},"weight_pounds":null},{"id":437,"first_name":"Milos","height_feet":null,"height_inches":null,"last_name":"Teodosic","position":"G","team":{"id":13,"abbreviation":"LAC","city":"LA","conference":"West","division":"Pacific","full_name":"LA Clippers","name":"Clippers"},"weight_pounds":null},{"id":494,"first_name":"Michael","height_feet":null,"height_inches":null,"last_name":"Smith","position":"","team":{"id":2,"abbreviation":"BOS","city":"Boston","conference":"East","division":"Atlantic","full_name":"Boston Celtics","name":"Celtics"},"weight_pounds":null},{"id":497,"first_name":"Michael","height_feet":null,"height_inches":null,"last_name":"Ansley","position":"","team":{"id":22,"abbreviation":"ORL","city":"Orlando","conference":"East","division":"Southeast","full_name":"Orlando Magic","name":"Magic"},"weight_pounds":null},{"id":498,"first_name":"John","height_feet":null,"height_inches":null,"last_name":"Salley","position":"","team":{"id":9,"abbreviation":"DET","city":"Detroit","conference":"East","division":"Central","full_name":"Detroit Pistons","name":"Pistons"},"weight_pounds":null},{"id":505,"first_name":"Herb","height_feet":null,"height_inches":null,"last_name":"Williams","position":"","team":{"id":7,"abbreviation":"DAL","city":"Dallas","conference":"West","division":"Southwest","full_name":"Dallas Mavericks","name":"Mavericks"},"weight_pounds":null},{"id":506,"first_name":"Joe","height_feet":null,"height_inches":null,"last_name":"Wolf","position":"","team":{"id":8,"abbreviation":"DEN","city":"Denver","conference":"West","division":"Northwest","full_name":"Denver Nuggets","name":"Nuggets"},"weight_pounds":null},{"id":508,"first_name":"Glen","height_feet":null,"height_inches":null,"last_name":"Rice","position":"","team":{"id":16,"abbreviation":"MIA","city":"Miami","conference":"East","division":"Southeast","full_name":"Miami Heat","name":"Heat"},"weight_pounds":null},{"id":510,"first_name":"Larry","height_feet":null,"height_inches":null,"last_name":"Nance","position":"","team":{"id":6,"abbreviation":"CLE","city":"Cleveland","conference":"East","division":"Central","full_name":"Cleveland Cavaliers","name":"Cavaliers"},"weight_pounds":null},{"id":511,"first_name":"Duane","height_feet":null,"height_inches":null,"last_name":"Ferrell","position":"","team":{"id":1,"abbreviation":"ATL","city":"Atlanta","conference":"East","division":"Southeast","full_name":"Atlanta Hawks","name":"Hawks"},"weight_pounds":null},{"id":515,"first_name":"Darrell","height_feet":null,"height_inches":null,"last_name":"Griffith","position":"","team":{"id":29,"abbreviation":"UTA","city":"Utah","conference":"West","division":"Northwest","full_name":"Utah Jazz","name":"Jazz"},"weight_pounds":null},{"id":516,"first_name":"Dan","height_feet":null,"height_inches":null,"last_name":"Majerle","position":"","team":{"id":24,"abbreviation":"PHX","city":"Phoenix","conference":"West","division":"Pacific","full_name":"Phoenix Suns","name":"Suns"},"weight_pounds":null},{"id":518,"first_name":"Alaa","height_feet":null,"height_inches":null,"last_name":"Abdelnaby","position":"","team":{"id":25,"abbreviation":"POR","city":"Portland","conference":"West","division":"Northwest","full_name":"Portland Trail Blazers","name":"Trail Blazers"},"weight_pounds":null},{"id":519,"first_name":"Adrian","height_feet":null,"height_inches":null,"last_name":"Caldwell","position":"","team":{"id":11,"abbreviation":"HOU","city":"Houston","conference":"West","division":"Southwest","full_name":"Houston Rockets","name":"Rockets"},"weight_pounds":null},{"id":520,"first_name":"Vernon","height_feet":null,"height_inches":null,"last_name":"Maxwell","position":"","team":{"id":11,"abbreviation":"HOU","city":"Houston","conference":"West","division":"Southwest","full_name":"Houston Rockets","name":"Rockets"},"weight_pounds":null},{"id":522,"first_name":"Tony","height_feet":null,"height_inches":null,"last_name":"Campbell","position":"","team":{"id":18,"abbreviation":"MIN","city":"Minnesota","conference":"West","division":"Northwest","full_name":"Minnesota Timberwolves","name":"Timberwolves"},"weight_pounds":null},{"id":523,"first_name":"Roy","height_feet":null,"height_inches":null,"last_name":"Tarpley","position":"","team":{"id":7,"abbreviation":"DAL","city":"Dallas","conference":"West","division":"Southwest","full_name":"Dallas Mavericks","name":"Mavericks"},"weight_pounds":null},{"id":525,"first_name":"Todd","height_feet":null,"height_inches":null,"last_name":"Lichti","position":"","team":{"id":8,"abbreviation":"DEN","city":"Denver","conference":"West","division":"Northwest","full_name":"Denver Nuggets","name":"Nuggets"},"weight_pounds":null},{"id":526,"first_name":"Tom","height_feet":null,"height_inches":null,"last_name":"Tolbert","position":"","team":{"id":10,"abbreviation":"GSW","city":"Golden State","conference":"West","division":"Pacific","full_name":"Golden State Warriors","name":"Warriors"},"weight_pounds":null}],"meta":{"total_pages":73,"current_page":1,"next_page":2,"per_page":25,"total_count":1801}}
