{
    "data": [
        {
            "id": 1,
            "abbreviation": "ATL",
            "city": "Atlanta",
            "conference": "East",
            "division": "Southeast",
            "full_name": "Atlanta Hawks",
            "name": "Hawks"
        }
    ],
    "meta": {
        "total_pages": 30,
        "current_page": 1,
        "next_page": 2,
        "per_page": 1,
        "total_count": 30
    }
}