{
    "data": [
        {
            "id": 21,
            "abbreviation": "OKC",
            "city": "Oklahoma City",
            "conference": "West",
            "division": "Northwest",
            "full_name": "Oklahoma City Thunder",
            "name": "Thunder"
        },
        {
            "id": 22,
            "abbreviation": "ORL",
            "city": "Orlando",
            "conference": "East",
            "division": "Southeast",
            "full_name": "Orlando Magic",
            "name": "Magic"
        },
        {
            "id": 23,
            "abbreviation": "PHI",
            "city": "Philadelphia",
            "conference": "East",
            "division": "Atlantic",
            "full_name": "Philadelphia 76ers",
            "name": "76ers"
        },
        {
            "id": 24,
            "abbreviation": "PHX",
            "city": "Phoenix",
            "conference": "West",
            "division": "Pacific",
            "full_name": "Phoenix Suns",
            "name": "Suns"
        },
        {
            "id": 25,
            "abbreviation": "POR",
            "city": "Portland",
            "conference": "West",
            "division": "Northwest",
            "full_name": "Portland Trail Blazers",
            "name": "Trail Blazers"
        },
        {
            "id": 26,
            "abbreviation": "SAC",
            "city": "Sacramento",
            "conference": "West",
            "division": "Pacific",
            "full_name": "Sacramento Kings",
            "name": "Kings"
        },
        {
            "id": 27,
            "abbreviation": "SAS",
            "city": "San Antonio",
            "conference": "West",
            "division": "Southwest",
            "full_name": "San Antonio Spurs",
            "name": "Spurs"
        },
        {
            "id": 28,
            "abbreviation": "TOR",
            "city": "Toronto",
            "conference": "East",
            "division": "Atlantic",
            "full_name": "Toronto Raptors",
            "name": "Raptors"
        },
        {
            "id": 29,
            "abbreviation": "UTA",
            "city": "Utah",
            "conference": "West",
            "division": "Northwest",
            "full_name": "Utah Jazz",
            "name": "Jazz"
        },
        {
            "id": 30,
            "abbreviation": "WAS",
            "city": "Washington",
            "conference": "East",
            "division": "Southeast",
            "full_name": "Washington Wizards",
            "name": "Wizards"
        }
    ],
    "meta": {
        "total_pages": 3,
        "current_page": 3,
        "next_page": null,
        "per_page": 10,
        "total_count": 30
    }
}