{
    "data": [
        {
            "id": 14,
            "first_name": "Ike",
            "height_feet": null,
            "height_inches": null,
            "last_name": "Anigbogu",
            "position": "C",
            "team": {
                "id": 12,
                "abbreviation": "IND",
                "city": "Indiana",
                "conference": "East",
                "division": "Central",
                "full_name": "Indiana Pacers",
                "name": "Pacers"
            },
            "weight_pounds": null
        },
        {
            "id": 25,
            "first_name": "Ron",
            "height_feet": null,
            "height_inches": null,
            "last_name": "Baker",
            "position": "G",
            "team": {
                "id": 20,
                "abbreviation": "NYK",
                "city": "New York",
                "conference": "East",
                "division": "Atlantic",
                "full_name": "New York Knicks",
                "name": "Knicks"
            },
            "weight_pounds": null
        },
        {
            "id": 47,
            "first_name": "Jabari",
            "height_feet": null,
            "height_inches": null,
            "last_name": "Bird",
            "position": "G",
            "team": {
                "id": 2,
                "abbreviation": "BOS",
                "city": "Boston",
                "conference": "East",
                "division": "Atlantic",
                "full_name": "Boston Celtics",
                "name": "Celtics"
            },
            "weight_pounds": null
        },
        {
            "id": 67,
            "first_name": "MarShon",
            "height_feet": null,
            "height_inches": null,
            "last_name": "Brooks",
            "position": "G",
            "team": {
                "id": 15,
                "abbreviation": "MEM",
                "city": "Memphis",
                "conference": "West",
                "division": "Southwest",
                "full_name": "Memphis Grizzlies",
                "name": "Grizzlies"
            },
            "weight_pounds": null
        },
        {
            "id": 71,
            "first_name": "Lorenzo",
            "height_feet": null,
            "height_inches": null,
            "last_name": "Brown",
            "position": "G",
            "team": {
                "id": 28,
                "abbreviation": "TOR",
                "city": "Toronto",
                "conference": "East",
                "division": "Atlantic",
                "full_name": "Toronto Raptors",
                "name": "Raptors"
            },
            "weight_pounds": null
        },
        {
            "id": 90,
            "first_name": "Omri",
            "height_feet": null,
            "height_inches": null,
            "last_name": "Casspi",
            "position": "F",
            "team": {
                "id": 15,
                "abbreviation": "MEM",
                "city": "Memphis",
                "conference": "West",
                "division": "Southwest",
                "full_name": "Memphis Grizzlies",
                "name": "Grizzlies"
            },
            "weight_pounds": null
        },
        {
            "id": 1,
            "first_name": "Alex",
            "height_feet": 6,
            "height_inches": 6,
            "last_name": "Abrines",
            "position": "G",
            "team": {
                "id": 21,
                "abbreviation": "OKC",
                "city": "Oklahoma City",
                "conference": "West",
                "division": "Northwest",
                "full_name": "Oklahoma City Thunder",
                "name": "Thunder"
            },
            "weight_pounds": 200
        },
        {
            "id": 119,
            "first_name": "Tyler",
            "height_feet": null,
            "height_inches": null,
            "last_name": "Davis",
            "position": "C",
            "team": {
                "id": 21,
                "abbreviation": "OKC",
                "city": "Oklahoma City",
                "conference": "West",
                "division": "Northwest",
                "full_name": "Oklahoma City Thunder",
                "name": "Thunder"
            },
            "weight_pounds": null
        },
        {
            "id": 149,
            "first_name": "Keenan",
            "height_feet": null,
            "height_inches": null,
            "last_name": "Evans",
            "position": "G",
            "team": {
                "id": 9,
                "abbreviation": "DET",
                "city": "Detroit",
                "conference": "East",
                "division": "Central",
                "full_name": "Detroit Pistons",
                "name": "Pistons"
            },
            "weight_pounds": null
        },
        {
            "id": 179,
            "first_name": "Marcin",
            "height_feet": null,
            "height_inches": null,
            "last_name": "Gortat",
            "position": "C",
            "team": {
                "id": 13,
                "abbreviation": "LAC",
                "city": "LA",
                "conference": "West",
                "division": "Pacific",
                "full_name": "LA Clippers",
                "name": "Clippers"
            },
            "weight_pounds": null
        }
    ],
    "meta": {
        "total_pages": 376,
        "current_page": 1,
        "next_page": 2,
        "per_page": 10,
        "total_count": 3757
    }
}