{
    "data": [
        {
            "id": 14,
            "first_name": "Ike",
            "height_feet": null,
            "height_inches": null,
            "last_name": "Anigbogu",
            "position": "C",
            "team": {
                "id": 12,
                "abbreviation": "IND",
                "city": "Indiana",
                "conference": "East",
                "division": "Central",
                "full_name": "Indiana Pacers",
                "name": "Pacers"
            },
            "weight_pounds": null
        }
    ],
    "meta": {
        "total_pages": 3757,
        "current_page": 1,
        "next_page": 2,
        "per_page": 1,
        "total_count": 3757
    }
}